{
  "connection": "default",
  "collectionName": "",
  "info": {
    "name": "keepaliverequest",
    "description": ""
  },
  "options": {
    "timestamps": true
  },
  "attributes": {
    "dev_id": {
      "default": "",
      "type": "string"
    }
  }
}